{
  "siteTitle": "Session UI",
  "siteSubTitle": "Session UI subheader",
  "filtersTitle": "Filters",
  "filtersInstruction": "Choose one or more filters below.",
  "filtersSubTitle": "View sessions that include:",
  "sessionTitle": "nothing to see here",
  "sessionSubTitle": "Fill this with something meaningful",
  "selectionTitle": "Selections",
  "selectionInstruction": "Your selected sessions are ready for printing! NOTE: Downloads need to be printed separately.",
  "selectionSubtitle": "Ready for export to pdf",
  "previewButtonExpamd": "view the full session",
  "previewButtonCollapse": "less",
  "selectButton": "Select this session",
  "selectionSummary": "Summary",
  "selectionSummarySub": "wheres this:",
  "selectionSummarySession": "Total Sessions: ",
  "selectionSummaryDurations": "Total Duration: ",
  "selectionSummaryMaterials": "Total Materials: ",
  "selectionExport": "print pdf",
  "selectionClear": "clear all",
  "mainColumnHeading": "Workshops and Activities",
  "attachmentsLabel": "Downloads",
  "downloadsHelpText": "(These documents need to be downloaded and printed separately)",
  "sources": "Source:",
  "contributors": "Contributors:",
  "printHelp": "Click Ctrl+P to print this page.",
  "selectedSessionsLabel": "Selected Sessions",
  "totalDuration": "Total Duration:",
  "materialsNeeded": "Materials Needed:",
  "downloadsHeading": "Downloads:",
  "summaryTitle": "Summary",
  "selectedSessions": "Selected Sessions: ",
  "gettingStartedTab": "Getting Started",
  "sessionBreakdownTab": "Session Breakdown"
}
